{
    "0": {
        "description": "Hello detective, I am the Invisible Man. I unfortunate that we meet on such occasion. What happened today is just terrible. I can't believe something like this could happen to one of us. Such a tragedy! How can I help you detective?",
        "copyChoicesFrom": -1,
        "choices": [
            {
                "description": "Can you tell me a bit about yourself?",
                "nextConversationID": 3,
                "keys": [],
                "keyholes": []
            },
            {
                "description": "I hava a few questions regarding the murder.",
                "nextConversationID": 2,
                "keys": [],
                "keyholes": []
            }
        ]
    },
    "1": {
        "description": "Hello detective! How is the investigation going? Are you close to catching a killer? Can I be of assistance?",
        "choices": [
            {
                "description": "When was the last time you saw Mr. Frankenstein?",
                "nextConversationID": 5,
                "keys": [],
                "keyholes": []
            },
            {
                "description": "What do you think about the murder?",
                "nextConversationID": 6,
                "keys": [],
                "keyholes": []
            },
            {
                "description": "The Mummy mentioned the Master Trap Door was taken, but he didn't see anyone. You can walk without being seen can't you? Did you take it?",
                "nextConversationID": 7,
                "keys": [],
                "keyholes": [
                    11
                ]
            },
            {
                "description": "Mr. Pennywise, the clown told me you were the first one who left the theater. You said, he left first.",
                "nextConversationID": 8,
                "keys": [],
                "keyholes": [
                    7
                ]
            }
        ]
    },
    "5": {
        "description": "Yesterday morning I bumped into him, if I recall correctly.",
        "choices": [
            {
                "description": "Notice anything strange?",
                "nextConversationID": 9,
                "keys": [],
                "keyholes": []
            }
        ]
    },
    "9": {
        "description": "Not really, no.",
        "choices": [
            {
                "description": "I see.",
                "nextConversationID": 10,
                "keys": [],
                "keyholes": []
            }
        ]
    },
    "3": {
        "description": "I am Griffin, or as most people know me, the Hollow Man. I am sure you ahve heard my story, so I won't bother telling it. I have been a member of the Refuge of Retired Monsters, since 1933.",
        "choices": [
            {
                "description": "Refuge of Retired Monsters?",
                "nextConversationID": 4,
                "keys": [],
                "keyholes": []
            },
            {
                "description": "I see, thanks. Can you tell me about the murder?",
                "nextConversationID": 2,
                "keys": [],
                "keyholes": []
            }
        ]
    },
    "4": {
        "description": "It's a sanctuary for monsters like me. Monsters that the cinema of today rejected. Seven us have been living here for a while now. It's incredibly tedious, since we have nothing to do. In the olden days, we had a new movie every decade, now look at us!",
        "choices": [
            {
                "description": "I understand, thank you. May I ask regarding the crime?",
                "nextConversationID": 2,
                "keys": [],
                "keyholes": []
            }
        ]
    },
    "2": {
        "description": "Oh yes, it's terrible, just terrible. Frank was one of the longest tenants here. How can I help?",
        "copyChoicesFrom": 1,
        "choices": []
    },
    "10": {
        "copyChoicesFrom": 1,
        "choices": []
    },
    "12": {
        "copyChoicesFrom": 6,
        "choices": []
    },
    "6": {
        "description": "Frank was a nice guy, I guess. It's really sad what happened.",
        "choices": [
            {
                "description": "Who do you think killed Mr. Frankenstein?",
                "nextConversationID": 11,
                "keys": [
                    45
                ],
                "keyholes": []
            },
            {
                "description": "What were you doing last night?",
                "nextConversationID": 13,
                "keys": [],
                "keyholes": []
            },
            {
                "description": "Who do you think the knife that was used to stab Mr. Frankenstein belonged to?",
                "nextConversationID": 18,
                "keys": [
                    1
                ],
                "keyholes": []
            }
        ]
    },
    "11": {
        "description": "Didn't you find a VHS tape on the body? Doesn't that mean that TV bitch, Amanda was killer?",
        "choices": [
            {
                "description": "The investigation is still progressing.",
                "nextConversationID": 12,
                "keys": [],
                "keyholes": []
            },
            {
                "description": "Perhaps, we'll see. What were you doing last night?",
                "nextConversationID": 13,
                "keys": [],
                "keyholes": []
            }
        ]
    },
    "18": {
        "description": "Probably the twins? You should ask them.",
        "choices": [
            {
                "description": "I will.",
                "nextConversationID": 12,
                "keys": [],
                "keyholes": []
            }
        ]
    },
    "13": {
        "description": "I was with my buddies, with the Mummy and Pennywise... you know the clown. We were watching a movie.",
        "choices": [
            {
                "description": "What movie?",
                "nextConversationID": 14,
                "keys": [],
                "keyholes": []
            },
            {
                "description": "When did you leave?",
                "nextConversationID": 15,
                "keys": [],
                "keyholes": []
            }
        ]
    },
    "14": {
        "description": "Uhm...what was it called? The new Resident Evil movie.",
        "choices": [
            {
                "description": "Was it any good?",
                "nextConversationID": 16,
                "keys": [],
                "keyholes": []
            },
            {
                "description": "When did you leave?",
                "nextConversationID": 15,
                "keys": [],
                "keyholes": []
            },
            {
                "description": "Alright, thanks for the information.",
                "nextConversationID": 10,
                "keys": [],
                "keyholes": []
            }
        ]
    },
    "16": {
        "description": "Can't really remember... that probably means... it wasn't that great, right?.",
        "choices": [
            {
                "description": "When did you leave?",
                "nextConversationID": 15,
                "keys": [],
                "keyholes": []
            }
        ]
    },
    "15": {
        "description": "Pennywise left really early, I don't know where he went. We finished the movie and then the Mummy and I went to our rooms.",
        "choices": [
            {
                "description": "Alright, thanks for the information.",
                "nextConversationID": 10,
                "keys": [],
                "keyholes": []
            },
            {
                "description": "What was the name of the movie?",
                "nextConversationID": 14,
                "keys": [],
                "keyholes": []
            }
        ]
    },
    "7": {
        "description": "Oh yeah, yeah. The traps are so loud, I can barely sleep, so I used the key to turn them off.",
        "choices": [
            {
                "description": "Alright, thanks for the information.",
                "nextConversationID": 10,
                "keys": [],
                "keyholes": []
            },
            {
                "description": "Just last night?",
                "nextConversationID": 17,
                "keys": [],
                "keyholes": []
            }
        ]
    },
    "17": {
        "description": "Yeah. I don't know... these traps... They are always on.",
        "choices": [
            {
                "description": "Alright, thanks for the information.",
                "nextConversationID": 10,
                "keys": [],
                "keyholes": []
            }
        ]
    },
    "8": {
        "description": "You can't trust a clown... He is a clown! Would you trust a clown over the Invisible Man?? Don't believe me? Ask the Mummy!",
        "choices": [
            {
                "description": "Depends...",
                "nextConversationID": 10,
                "keys": [],
                "keyholes": []
            }
        ]
    }
}