{
    "0": {
        "description": "Whoooa maaan! They sent the Scotland Yard out?",
        "choices": [
            {
                "description": "I would appreciate if you could call me by my name, Columbo.",
                "nextConversationID": 2
            }
        ]
    },
    "1": {
        "description": "Eeyyy mah man is back! What can I do for ya, Columbo?",
        "choices": [
            {
                "description": "Where were you last night?",
                "nextConversationID": 5
            },
            {
                "description": "Nice pyramid, you have here.",
                "nextConversationID": 10,
                
            },
            {
                "description": "I was told you can disable the traps?",
                "nextConversationID": 8,
                "keyholes": [
                    15
                ]
            },
            {
                "description": "Tell me about this place",
                "nextConversationID": 6
            }
        ]
    },
    "10": {
        "description": "Thanks, bro, been workin' on it some time now. I sleep inside, it's great! I've been here too long, you know. Can't wait for a new movie... with Tom Cruise maybe... That dude can run! I can't.",
        "choices": [
            {
                "description": "I see.",
                "nextConversationID": 1
            }
        ]
    },
    "2": {
        "description": "Alright mah dude. I mean Columbo. I am the mighty Imhotep. But you can just call me pal, cool? What can I help ya with, pal?",
        "choices": [
            {
                "description": "You heard what happened the other night right? Mr Frankenstein died. I'll have to ask you a few questions.",
                "nextConversationID": 3
            }
        ]
    },
    "3": {
        "description": "Yeah, yeah mah dud- Columbo. Terrible business that is. Just like when I soaked these rags in...well let's just say I smelled like a private throne for a while...",
        "choices": [
            {
                "description": "...Alright, so let me ask you this.",
                "nextConversationID": 4
            }
        ]
    },
    "4": {
        "copyChoicesFrom": 1
    },
    "5": {
        "description": "Maaan, I was hanging out with mah dude , the Invisible Man and Pennywise! It was a blast, we went to the movies! Watched that new one, Resident Evil? I might have been high on some ancient catnip or something, but that movie was so much fun! Laughed all the way!",
        "choices": [
            {
                "description": "So all of you were out all night?",
                "nextConversationID": 7
            }
        ]
    },
    "6": {
        "description": "This place? Lemme tell ya, it's called the 'Refuge of Retired Monsters'. Sounds good right? But it's so boring here, man. They put us here after our movies aren't selling 'nymore. With all these new superhero movies man, we don't stand a chance I tell ya. So now I just stay here and blaze it...Although I heard that Franky got a new gig? Too bad he is dead now. Maybe some other monster here will get his chance then?",
        "copyChoicesFrom": 7
    },
    "7": {
        "description": "Nah, the funny man, Pennywise left early. Said something about talking with Frankenstein about their movie? Dunno, I was high...",
        "choices": [
            {
                "description": "I see, good to know!",
                "nextConversationID": 4
            }
        ]
    },
    "8": {
        "description": "Yeah pal, I can. Or I could. There is this large maintance cabinet you see, with a lock on it. But for some reason I can't seem to find the key. I still had it yesterday morning. I have to switch off the traps every evening you know, so that we can actually get some sleep. I still don't get why we needed them...So anyway, I wanted to switch them back on this morning but can't seem to find it.",
        "choices": [
            {
                "description": "So who switched them on again? They seem to be woring now!",
                "nextConversationID": 9,
                "keys": [
                    11
                ]
            }
        ]
    },
    "9": {
        "description": "Yes, well I don't want to accuse anyone brah, but with what happened yesterday, maybe the key isn't lost. Someone took it maybe, ya know, but I ain't see noone leave my pyramid. Who could be walkin' without being seen?... Only a few can do that here... Amanda maybe?",
        "copyChoicesFrom": 7
    }
}