{
    "0": {
        "description": "Ah, hello little Detective man! I'm Pennywise, the dancing clown!",
        "choices": [
            {
                "description": "Erm...nice to meet you. My name is Columbo. What are you doing down there?",
                "nextConversationID": 2
            },
            {
                "description": "Nice to meet you. Can I ask you a few questions regarding yesterday evening and Mr. Frankenstein?",
                "nextConversationID": 3
            }
        ]
    },
    "1": {
        "description": "Welcome back little Columbo! More questions for me?",
        "choices": [
            {
                "description": "Can you tell me where you were last night?",
                "nextConversationID": 4,
                "keys": [
                    7
                ]
            },
            {
                "description": "There was a knife found in the back of Mr. Frankenstein. Any ideas about it?",
                "nextConversationID": 5,
                "keys": [
                    1
                ]
            },
            {
                "description": "Any ideas who might have wanted to kill Mr. Frankenstein?",
                "nextConversationID": 6
            }
        ]
    },
    "2": {
        "description": "Oh, I just sorta floated down here. Don't you mind me, hahaha.",
        "copyChoicesFrom": 0
    },
    "3": {
        "description": "Ah, but of course, what would you like to know, eh?",
        "copyChoicesFrom": 1
    },
    "4": {
        "description": "Hehe, yes of course my sweet buns. I was out with my pal Imhotep and buddy the Invisible Man. Watches some new movie. It was really bad, to the point that it was entertaining. You know, I have to admit, I felt like a third wheel. Those two, they are so close, makes you think if they have anything between them, hahaha.",
        "choices": [
            {
                "description": "So were you there for the whole night?",
                "nextConversationID": 7,
                "skeys": [
                    7
                ]
            }
        ]
    },
    "7": {
        "description": "Yees, yess. I was laughing really badly you see. I never leave a joke hanging, even if it is not mine. The Invisible Man left early though. Don't know why...",
        "copyChoicesFrom": 1
    },
    "5": {
        "description": "Dunno about where it was or anything. But I do know that the Twins, those like that knife. They are a fan you could say.",
        "choices": [
            {
                "description": "Understood. I'll ask them then.",
                "nextConversationID": 11,
                "keys": [
                    7
                ]
            }
        ]
    },
    "6": {
        "description": "Well, I will tell you what. Franky old boy was mushed right? I would put my penny on the monkey. Who else could have crushed a big boy like Franky?",
        "copyChoicesFrom": 1
    },
    "11": {
        "copyChoicesFrom": 1
    }
}